module gochain

go 1.14

require (
	github.com/AndreasBriese/bbloom v0.0.0-20180913140656-343706a395b7 // indirect
	github.com/dgraph-io/badger v1.5.4
	github.com/dgryski/go-farm v0.0.0-20180109070241-2de33835d102 // indirect
	github.com/golang/protobuf v1.2.0 // indirect
	github.com/mr-tron/base58 v1.1.3
	github.com/pkg/errors v0.8.0 // indirect
	golang.org/x/crypto v0.0.0-20200510223506-06a226fb4e37
	golang.org/x/sys v0.0.0-20200523222454-059865788121 // indirect
)
